{
    "platforms": ["*"], 
    "url": "https://gitlab.com/analgorist/orgextended", 
    "sublime_text": "*", 
    "version": "1.9.0", 
    "dependencies": ["pathlib"], 
    "description": "orgextended is inspired by Daniel M's excellent orgmode package. It is a more modern replacedment with additional features. Org Mode is is an emacs major mode for writing documents, managing your schedule and keeping notes"
}